…
## Example

This is a basic example which shows you how to solve a common problem:

``` r
library(dplyr)
library(taxyvr)


tax_2018 %>% filter(legal_type == "LAND") %>% 
  arrange(desc(current_land_value))
#> # A tibble: 90,044 x 32
#>    pid   legal_type   folio land_coordinate zone_name zone_category block plan 
#>    <chr> <chr>        <dbl>           <dbl> <chr>     <chr>         <chr> <chr>
#>  1 003-… LAND       7.50e11        75016492 CD-1 (1)  Comprehensiv… 892   VAP2…
#>  2 019-… LAND       1.76e11        17579092 RS-1      One Family D… 1165  LMP2…
#>  3 023-… LAND       8.12e11        81227904 RS-1      One Family D… <NA>  LMP2…
#>  4 007-… LAND       1.21e11        12060807 DD        Comprehensiv… 9     VAP1…
#>  5 026-… LAND       6.38e11        63817555 M-2       Industrial    <NA>  BCP2…
#>  6 016-… LAND       2.76e10         2762196 RS-1      One Family D… <NA>  VAP2…
#>  7 008-… LAND       5.90e11        59028009 CD-1 (3B) Comprehensiv… <NA>  VAP1…
#>  8 009-… LAND       7.17e11        71715004 CD-1 (12… Comprehensiv… 1009  VAP1…
#>  9 006-… LAND       6.11e11        61110709 RS-1      One Family D… <NA>  VAP2…
#> 10 007-… LAND       7.39e11        73914897 CD-1 (65) Comprehensiv… 903   13962
#> # … with 90,034 more rows, and 24 more variables: district_lot <chr>,
#> #   lot <chr>, from_civic_number <chr>, to_civic_number <dbl>,
#> #   street_name <chr>, property_postal_code <chr>, narrative_legal_line3 <chr>,
#> #   narrative_legal_line2 <chr>, narrative_legal_line1 <chr>,
#> #   narrative_legal_line4 <chr>, narrative_legal_line5 <chr>,
#> #   current_land_value <dbl>, current_improvement_value <dbl>,
#> #   tax_assessment_year <dbl>, previous_improvement_value <dbl>,
#> #   previous_land_value <dbl>, year_built <dbl>, big_improvement_year <dbl>,
#> #   tax_levy <dbl>, neighbourhood_code <chr>, report_year <dbl>,
…
